{
  "project_info": {
    "project_number": "67470717289",
    "firebase_url": "https://interest-projects.firebaseio.com",
    "project_id": "interest-projects",
    "storage_bucket": "interest-projects.appspot.com"
  },
  "client": [
    {
      "client_info": {
        "mobilesdk_app_id": "1:67470717289:android:f6b170d9728688ae31cdf8",
        "android_client_info": {
          "package_name": "com.gogamegone.superfileexplorer"
        }
      },
      "oauth_client": [
        {
          "client_id": "67470717289-2skrte5dm7tg2o9292a1sbkm70jq83ph.apps.googleusercontent.com",
          "client_type": 3
        }
      ],
      "api_key": [
        {
          "current_key": "AIzaSyAjWOaPcKyWdcLrADX8FXPkuuPeZqqXAdM"
        }
      ],
      "services": {
        "appinvite_service": {
          "other_platform_oauth_client": [
            {
              "client_id": "67470717289-2skrte5dm7tg2o9292a1sbkm70jq83ph.apps.googleusercontent.com",
              "client_type": 3
            }
          ]
        }
      }
    },
    {
      "client_info": {
        "mobilesdk_app_id": "1:67470717289:android:2096690f81dbe0f431cdf8",
        "android_client_info": {
          "package_name": "com.meow.animal.translator"
        }
      },
      "oauth_client": [
        {
          "client_id": "67470717289-2skrte5dm7tg2o9292a1sbkm70jq83ph.apps.googleusercontent.com",
          "client_type": 3
        }
      ],
      "api_key": [
        {
          "current_key": "AIzaSyAjWOaPcKyWdcLrADX8FXPkuuPeZqqXAdM"
        }
      ],
      "services": {
        "appinvite_service": {
          "other_platform_oauth_client": [
            {
              "client_id": "67470717289-2skrte5dm7tg2o9292a1sbkm70jq83ph.apps.googleusercontent.com",
              "client_type": 3
            }
          ]
        }
      }
    },
    {
      "client_info": {
        "mobilesdk_app_id": "1:67470717289:android:4f8fe0dfe7e5a14b31cdf8",
        "android_client_info": {
          "package_name": "com.smart.game.booster.phone"
        }
      },
      "oauth_client": [
        {
          "client_id": "67470717289-2skrte5dm7tg2o9292a1sbkm70jq83ph.apps.googleusercontent.com",
          "client_type": 3
        }
      ],
      "api_key": [
        {
          "current_key": "AIzaSyAjWOaPcKyWdcLrADX8FXPkuuPeZqqXAdM"
        }
      ],
      "services": {
        "appinvite_service": {
          "other_platform_oauth_client": [
            {
              "client_id": "67470717289-2skrte5dm7tg2o9292a1sbkm70jq83ph.apps.googleusercontent.com",
              "client_type": 3
            }
          ]
        }
      }
    },
    {
      "client_info": {
        "mobilesdk_app_id": "1:67470717289:android:b180be425650b60231cdf8",
        "android_client_info": {
          "package_name": "com.smartbooster.best.cleaner.accelerator"
        }
      },
      "oauth_client": [
        {
          "client_id": "67470717289-2skrte5dm7tg2o9292a1sbkm70jq83ph.apps.googleusercontent.com",
          "client_type": 3
        }
      ],
      "api_key": [
        {
          "current_key": "AIzaSyAjWOaPcKyWdcLrADX8FXPkuuPeZqqXAdM"
        }
      ],
      "services": {
        "appinvite_service": {
          "other_platform_oauth_client": [
            {
              "client_id": "67470717289-2skrte5dm7tg2o9292a1sbkm70jq83ph.apps.googleusercontent.com",
              "client_type": 3
            }
          ]
        }
      }
    },
    {
      "client_info": {
        "mobilesdk_app_id": "1:67470717289:android:b444127491ff8ad031cdf8",
        "android_client_info": {
          "package_name": "flashlight.free.light.bright.torch"
        }
      },
      "oauth_client": [
        {
          "client_id": "67470717289-2skrte5dm7tg2o9292a1sbkm70jq83ph.apps.googleusercontent.com",
          "client_type": 3
        }
      ],
      "api_key": [
        {
          "current_key": "AIzaSyAjWOaPcKyWdcLrADX8FXPkuuPeZqqXAdM"
        }
      ],
      "services": {
        "appinvite_service": {
          "other_platform_oauth_client": [
            {
              "client_id": "67470717289-2skrte5dm7tg2o9292a1sbkm70jq83ph.apps.googleusercontent.com",
              "client_type": 3
            }
          ]
        }
      }
    },
    {
      "client_info": {
        "mobilesdk_app_id": "1:67470717289:android:14fc74f6e7e2483731cdf8",
        "android_client_info": {
          "package_name": "titan.booster.cleaner.system.fixer"
        }
      },
      "oauth_client": [
        {
          "client_id": "67470717289-2skrte5dm7tg2o9292a1sbkm70jq83ph.apps.googleusercontent.com",
          "client_type": 3
        }
      ],
      "api_key": [
        {
          "current_key": "AIzaSyAjWOaPcKyWdcLrADX8FXPkuuPeZqqXAdM"
        }
      ],
      "services": {
        "appinvite_service": {
          "other_platform_oauth_client": [
            {
              "client_id": "67470717289-2skrte5dm7tg2o9292a1sbkm70jq83ph.apps.googleusercontent.com",
              "client_type": 3
            }
          ]
        }
      }
    },
    {
      "client_info": {
        "mobilesdk_app_id": "1:67470717289:android:c3ea57c99b5957a331cdf8",
        "android_client_info": {
          "package_name": "voice.translator.language"
        }
      },
      "oauth_client": [
        {
          "client_id": "67470717289-2skrte5dm7tg2o9292a1sbkm70jq83ph.apps.googleusercontent.com",
          "client_type": 3
        }
      ],
      "api_key": [
        {
          "current_key": "AIzaSyAjWOaPcKyWdcLrADX8FXPkuuPeZqqXAdM"
        }
      ],
      "services": {
        "appinvite_service": {
          "other_platform_oauth_client": [
            {
              "client_id": "67470717289-2skrte5dm7tg2o9292a1sbkm70jq83ph.apps.googleusercontent.com",
              "client_type": 3
            }
          ]
        }
      }
    }
  ],
  "configuration_version": "1"
}